<?xml version="1.0" encoding="utf-8"?>
<!-- Generator: Adobe Illustrator 19.1.0, SVG Export Plug-In . SVG Version: 6.00 Build 0)  -->
<svg version="1.1" id="Lager_1" xmlns="http://www.w3.org/2000/svg" xmlns:xlink="http://www.w3.org/1999/xlink" x="0px" y="0px"
	 viewBox="-6 19.2 74.2 74.2" style="enable-background:new -6 19.2 74.2 74.2;" xml:space="preserve">
<style type="text/css">
	.st0{fill:#FF4040;}
</style>
<circle class="st0" cx="31.1" cy="56.3" r="37.1"/>
</svg>
